vivado/PS04/PS04.sim/sim_1/behav/xsim/simulate.log
Time resolution is 1 ps
=====================================================================================
           Time         | Reset | Taken | NotTkn | Prediction | TakenCnt | NotTknCnt
=====================================================================================
               30000 ns |   0   |   1   |   0    |     1      | 1        |        0
               50000 ns |   0   |   1   |   0    |     1      | 2        |        0
               70000 ns |   0   |   1   |   0    |     1      | 3        |        0
               90000 ns |   0   |   0   |   1    |     1      | 3        | 1       
              110000 ns |   0   |   0   |   1    |     1      | 3        | 2       
              130000 ns |   0   |   0   |   1    |     0      | 3        | 3       
              150000 ns |   0   |   0   |   1    |     0      | 3        | 4       
              170000 ns |   0   |   0   |   1    |     0      | 3        | 5       
              190000 ns |   1   |   0   |   0    |     0      |        0 |        0
              200000 ns |   0   |   0   |   0    |     0      |        0 |        0
              210000 ns |   0   |   1   |   0    |     1      | 1        |        0
              230000 ns |   0   |   1   |   0    |     1      | 2        |        0
              250000 ns |   0   |   1   |   0    |     1      | 3        |        0
              270000 ns |   0   |   0   |   1    |     1      | 3        | 1       
              290000 ns |   0   |   0   |   1    |     1      | 3        | 2       
              310000 ns |   0   |   0   |   1    |     0      | 3        | 3       
              330000 ns |   0   |   0   |   1    |     0      | 3        | 4       
              350000 ns |   0   |   1   |   0    |     0      | 4        | 4       
              370000 ns |   0   |   1   |   0    |     1      | 5        | 4       
=====================================================================================
                           Simulation Completed Successfully
=====================================================================================
$finish called at time : 390 ns : File "C:/Users/PC/Desktop/CPE_ALL/2nd_sem2/CPE223/cpe223-com-arch/PS04/src/tb/branch_predictor_tb.v" Line 101
